

  ___  __  ____  ____    __ _   __  ____  __            _  _  __  ___  _  _   __   ____  __      _  _  ____  __  ____  ____ 
 / __)/  \(    \(  __)  (  / ) / _\(_  _)/ _\    ___   ( \/ )(  )/ __)/ )( \ / _\ (  __)(  )    ( \/ )(  __)(  )(  __)(  _ \
( (__(  O )) D ( ) _)    )  ( /    \ )( /    \  (___)  / \/ \ )(( (__ ) __ (/    \ ) _) / (_/\  / \/ \ ) _)  )(  ) _)  )   /
 \___)\__/(____/(____)  (__\_)\_/\_/(__)\_/\_/         \_)(_/(__)\___)\_)(_/\_/\_/(____)\____/  \_)(_/(____)(__)(____)(__\_)

